{
	"parent": "item/handheld",
	"textures": {
		"layer0": "fortune-and-glory:item/rainbow_machine_gun"
	},
	"display": {
		"thirdperson_righthand": {
            "rotation": [ 90, -90, 135 ],
            "translation": [ 0, 1, -1 ],
            "scale": [ 0.9, 0.9, 0.9 ]
        },
        "thirdperson_lefthand": {
            "rotation": [ 180, 90, 135 ],
            "translation": [ 0, 1, -1 ],
            "scale": [ 0.9, 0.9, 0.9 ]
        }
	}
}