{
    "__comment": "Model generated using MrCrayfish's Model Creator (https://mrcrayfish.com/tools?id=mc)",
    "textures": {
        "vault_bomb": "fortune-and-glory:block/vault_bomb"
    },
    "display": {
        "gui": {
            "rotation": [ 30, 45, 0 ],
            "translation": [ 0, 0, 0 ],
            "scale": [ 0.625, 0.625, 0.625 ]
        },
        "ground": {
            "rotation": [ 0, 0, 0 ],
            "translation": [ 0, 3, 0 ],
            "scale": [ 0.25, 0.25, 0.25 ]
        },
        "fixed": {
            "rotation": [ 0, 180, 0 ],
            "translation": [ 0, 0, 0 ],
            "scale": [ 1, 1, 1 ]
        },
        "head": {
            "rotation": [ 0, 180, 0 ],
            "translation": [ 0, 0, 0 ],
            "scale": [ 1, 1, 1 ]
        },
        "firstperson_righthand": {
            "rotation": [ 0, 315, 0 ],
            "translation": [ 0, 2.5, 0 ],
            "scale": [ 0.4, 0.4, 0.4 ]
        },
        "thirdperson_righthand": {
            "rotation": [ 75, 315, 0 ],
            "translation": [ 0, 2.5, 0 ],
            "scale": [ 0.375, 0.375, 0.375 ]
        }
    },
    "elements": [
        {
            "name": "Cube",
            "from": [ 5, 0, 4 ], 
            "to": [ 11, 3, 12 ], 
            "faces": {
                "north": { "texture": "#vault_bomb", "uv": [ 0, 11, 6, 14 ] },
                "east": { "texture": "#vault_bomb", "uv": [ 8, 0, 16, 3 ] },
                "south": { "texture": "#vault_bomb", "uv": [ 0, 8, 6, 11 ] },
                "west": { "texture": "#vault_bomb", "uv": [ 8, 3, 16, 6 ] },
                "up": { "texture": "#vault_bomb", "uv": [ 0, 0, 6, 8 ] },
                "down": { "texture": "#vault_bomb", "uv": [ 10, 6, 16, 14 ] }
            }
        },
        {
            "name": "PlateTop",
            "from": [ 8, 3, 4 ], 
            "to": [ 9, 3.5, 11 ], 
            "faces": {
                "north": { "texture": "#vault_bomb", "uv": [ 2, 11, 3, 11.5 ] },
                "east": { "texture": "#vault_bomb", "uv": [ 9, 1, 16, 1.5 ] },
                "south": { "texture": "#vault_bomb", "uv": [ 5, 0, 6, 0.5 ] },
                "west": { "texture": "#vault_bomb", "uv": [ 9, 1, 16, 1.5 ] },
                "up": { "texture": "#vault_bomb", "uv": [ 3, 0, 4, 7 ] }
            }
        },
        {
            "name": "PlateBarTop1",
            "from": [ 9, 3, 4 ], 
            "to": [ 11.5, 3.5, 5 ], 
            "faces": {
                "north": { "texture": "#vault_bomb", "uv": [ 0.5, 11, 3, 11.5 ] },
                "east": { "texture": "#vault_bomb", "uv": [ 9, 0, 10, 0.5 ] },
                "south": { "texture": "#vault_bomb", "uv": [ 3, 0, 5.5, 0.5 ] },
                "up": { "texture": "#vault_bomb", "uv": [ 3, 0, 5.5, 1 ] }
            }
        },
        {
            "name": "PlateBarSide1",
            "from": [ 11, 2, 4 ], 
            "to": [ 11.5, 3, 5 ], 
            "faces": {
                "north": { "texture": "#vault_bomb", "uv": [ 5, 0, 5.5, 1 ] },
                "east": { "texture": "#vault_bomb", "uv": [ 9, 0, 10, 1 ] },
                "south": { "texture": "#vault_bomb", "uv": [ 9, 0, 9.5, 1 ] }
            }
        },
        {
            "name": "PlateSide",
            "from": [ 11, 1, 4 ], 
            "to": [ 11.5, 2, 11 ], 
            "faces": {
                "north": { "texture": "#vault_bomb", "uv": [ 5, 6, 5.5, 7 ] },
                "east": { "texture": "#vault_bomb", "uv": [ 9, 1, 16, 2 ] },
                "south": { "texture": "#vault_bomb", "uv": [ 5, 6, 5.5, 7 ] },
                "up": { "texture": "#vault_bomb", "uv": [ 3, 0, 3.5, 7 ] },
                "down": { "texture": "#vault_bomb", "uv": [ 3, 0, 3.5, 6 ] }
            }
        },
        {
            "name": "PlateBarTop2",
            "from": [ 9, 3, 6 ], 
            "to": [ 11.5, 3.5, 7 ], 
            "faces": {
                "north": { "texture": "#vault_bomb", "uv": [ 7, 7, 9.5, 7.5 ] },
                "east": { "texture": "#vault_bomb", "uv": [ 5, 0, 6, 0.5 ] },
                "south": { "texture": "#vault_bomb", "uv": [ 3, 0, 5.5, 0.5 ] },
                "up": { "texture": "#vault_bomb", "uv": [ 3, 0, 5.5, 1 ] }
            }
        },
        {
            "name": "PlateBarSide2",
            "from": [ 11, 2, 6 ], 
            "to": [ 11.5, 3, 7 ], 
            "faces": {
                "north": { "texture": "#vault_bomb", "uv": [ 5, 0, 5.5, 1 ] },
                "east": { "texture": "#vault_bomb", "uv": [ 9, 0, 10, 1 ] },
                "south": { "texture": "#vault_bomb", "uv": [ 9, 0, 9.5, 1 ] }
            }
        },
        {
            "name": "PlateBarSide3",
            "from": [ 11, 2, 8 ], 
            "to": [ 11.5, 3, 9 ], 
            "faces": {
                "north": { "texture": "#vault_bomb", "uv": [ 5, 0, 5.5, 1 ] },
                "east": { "texture": "#vault_bomb", "uv": [ 9, 0, 10, 1 ] },
                "south": { "texture": "#vault_bomb", "uv": [ 9, 0, 9.5, 1 ] }
            }
        },
        {
            "name": "PlateBarSide4",
            "from": [ 11, 2, 10 ], 
            "to": [ 11.5, 3, 11 ], 
            "faces": {
                "north": { "texture": "#vault_bomb", "uv": [ 5, 0, 5.5, 1 ] },
                "east": { "texture": "#vault_bomb", "uv": [ 9, 0, 10, 1 ] },
                "south": { "texture": "#vault_bomb", "uv": [ 9, 0, 9.5, 1 ] }
            }
        },
        {
            "name": "PlateBarTop4",
            "from": [ 9, 3, 10 ], 
            "to": [ 11.5, 3.5, 11 ], 
            "faces": {
                "north": { "texture": "#vault_bomb", "uv": [ 7, 7, 9.5, 7.5 ] },
                "east": { "texture": "#vault_bomb", "uv": [ 5, 0, 6, 0.5 ] },
                "south": { "texture": "#vault_bomb", "uv": [ 3, 6, 5.5, 6.5 ] },
                "up": { "texture": "#vault_bomb", "uv": [ 3, 6, 5.5, 7 ] }
            }
        },
        {
            "name": "PlateBarTop3",
            "from": [ 9, 3, 8 ], 
            "to": [ 11.5, 3.5, 9 ], 
            "faces": {
                "north": { "texture": "#vault_bomb", "uv": [ 7, 7, 9.5, 7.5 ] },
                "east": { "texture": "#vault_bomb", "uv": [ 5, 0, 6, 0.5 ] },
                "south": { "texture": "#vault_bomb", "uv": [ 3, 0, 5.5, 0.5 ] },
                "up": { "texture": "#vault_bomb", "uv": [ 3, 0, 5.5, 1 ] }
            }
        }
    ]
}